﻿Date,Value,Type,Unit
2017-10-05,6.226667663,Sleep,Hour
2017-10-06,7.223890045,Sleep,Hour
2017-10-09,7.132501141,Sleep,Hour
2017-10-10,7.918612378,Sleep,Hour
2017-10-11,8.015834616,Sleep,Hour
2017-10-12,6.128612092,Sleep,Hour
2017-10-13,5.804445373,Sleep,Hour
2017-10-16,7.9897235,Sleep,Hour
2017-10-17,7.12250114,Sleep,Hour
2017-10-18,8.017779061,Sleep,Hour
2017-10-19,6.617778837,Sleep,Hour
2017-10-23,7.998056835,Sleep,Hour
2017-10-24,7.50639009,Sleep,Hour
2017-10-25,8.345556891,Sleep,Hour
2017-10-26,0.041388896,Sleep,Hour
2017-10-27,7.371390068,Sleep,Hour
2017-10-30,8.023612395,Sleep,Hour
2017-10-31,7.264723384,Sleep,Hour
,,,
,,,
,,,
,,,
,,,
,,,
,,,
,,,
,,,
,,,
,,,
,,,
,,,
,,,
,,,
,,,
,,,
,,,
,,,
,,,
,,,
,,,
,,,
,,,
,,,
,,,
,,,
,,,
,,,
,,,
,,,
,,,
,,,
,,,
,,,
,,,
