﻿Date,Value,Type,Unit
2017-10-01,53,Step,Count
2017-10-02,3153,Step,Count
2017-10-03,6914,Step,Count
2017-10-04,7445,Step,Count
2017-10-05,7403,Step,Count
2017-10-08,6737,Step,Count
2017-10-11,15691,Step,Count
2017-10-12,8195,Step,Count
2017-10-13,3838,Step,Count
2017-10-14,726,Step,Count
2017-10-15,10,Step,Count
2017-10-16,131,Step,Count
2017-10-17,1755,Step,Count
2017-10-18,7728,Step,Count
2017-10-19,5624,Step,Count
2017-10-21,39,Step,Count
2017-10-22,94,Step,Count
2017-10-23,3640,Step,Count
2017-10-24,5513,Step,Count
2017-10-25,6674,Step,Count
2017-10-26,3270,Step,Count
2017-10-27,1310,Step,Count
2017-10-30,8696,Step,Count
2017-10-31,2659,Step,Count
